{ "page": 1, "total_results": 4106, "total_pages": 206, "results": [{ "popularity": 50.775, "vote_count": 5551, "video": false, "poster_path": "\/plcZXvI310FkbwIptvd6rqk63LP.jpg", "id": 10144, "adult": false, "backdrop_path": "\/4w2uPtIo0lFSnQnWg0zVAqPJCLP.jpg", "original_language": "en", "original_title": "The Little Mermaid", "genre_ids": [16, 10751, 14], "title": "The Little Mermaid", "vote_average": 7.3, "overview": "This colorful adventure tells the story of an impetuous mermaid princess named Ariel who falls in love with the very human Prince Eric and puts everything on the line for the chance to be with him. Memorable songs and characters -- including the villainous sea witch Ursula.", "release_date": "1989-11-17" }, { "popularity": 34.101, "vote_count": 5110, "video": false, "poster_path": "\/lH3dsbxA4wLalWKNYpVldX8zfPP.jpg", "id": 268, "adult": false, "backdrop_path": "\/2va32apQP97gvUxaMnL5wYt4CRB.jpg", "original_language": "en", "original_title": "Batman", "genre_ids": [14, 28], "title": "Batman", "vote_average": 7.2, "overview": "Having witnessed his parents' brutal murder as a child, millionaire philanthropist Bruce Wayne fights crime in Gotham City disguised as Batman, a costumed hero who strikes fear into the hearts of villains. But when a deformed madman who calls himself \"The Joker\" seizes control of Gotham's criminal underworld, Batman must face his most ruthless nemesis ever while protecting both his identity and his love interest, reporter Vicki Vale.", "release_date": "1989-06-23" }, { "popularity": 25.571, "id": 89, "video": false, "vote_count": 6852, "vote_average": 7.8, "title": "Indiana Jones and the Last Crusade", "release_date": "1989-05-24", "original_language": "en", "original_title": "Indiana Jones and the Last Crusade", "genre_ids": [12, 28], "backdrop_path": "\/diTtDL61hIwozEGBwEsw7uA7qN9.jpg", "adult": false, "overview": "When Dr. Henry Jones Sr. suddenly goes missing while pursuing the Holy Grail, eminent archaeologist Indiana must team up with Marcus Brody, Sallah and Elsa Schneider to follow in his father's footsteps and stop the Nazis from recovering the power of eternal life.", "poster_path": "\/sizg1AU8f8JDZX4QIgE4pjUMBvx.jpg" }, { "popularity": 26.244, "vote_count": 1090, "video": false, "poster_path": "\/qcLGk8CkZW4rHK1kqD9Jdst5vd8.jpg", "id": 1648, "adult": false, "backdrop_path": "\/jyi7okJmWu6nEtnmeIADIdwftND.jpg", "original_language": "en", "original_title": "Bill & Ted's Excellent Adventure", "genre_ids": [12, 35, 878], "title": "Bill & Ted's Excellent Adventure", "vote_average": 6.9, "overview": "Bill and Ted are high school buddies starting a band. They are also about to fail their history class—which means Ted would be sent to military school—but receive help from Rufus, a traveller from a future where their band is the foundation for a perfect society. With the use of Rufus' time machine, Bill and Ted travel to various points in history, returning with important figures to help them complete their final history presentation.", "release_date": "1989-02-17" }, { "popularity": 31.881, "vote_count": 569, "video": false, "poster_path": "\/s5U5JgPpgfTnbGxQF2bOlfqqz5b.jpg", "id": 10283, "adult": false, "backdrop_path": "\/wso012gKziMLR6J2LlYEO74tzy9.jpg", "original_language": "en", "original_title": "Friday the 13th Part VIII: Jason Takes Manhattan", "genre_ids": [27, 53], "title": "Friday the 13th Part VIII: Jason Takes Manhattan", "vote_average": 4.9, "overview": "A group of students on a graduation cruise bound for Manhattan soon realize they've got a stowaway aboard the ship: serial killer Jason Voorhees.", "release_date": "1989-07-28" }, { "popularity": 27.327, "vote_count": 2341, "video": false, "poster_path": "\/pN4iKcvpyxkhtyOKUKe2tTqEDYm.jpg", "id": 16859, "adult": false, "backdrop_path": "\/h5pAEVma835u8xoE60kmLVopLct.jpg", "original_language": "ja", "original_title": "魔女の宅急便", "genre_ids": [16, 12, 18, 14, 10751], "title": "Kiki's Delivery Service", "vote_average": 7.8, "overview": "A young witch, on her mandatory year of independent life, finds fitting into a new community difficult while she supports herself by running an air courier service.", "release_date": "1989-07-29" }, { "popularity": 28.499, "vote_count": 8988, "video": false, "poster_path": "\/hQq8xZe5uLjFzSBt4LanNP7SQjl.jpg", "id": 165, "adult": false, "backdrop_path": "\/skQN2UMQKQnOTmwplcYMx6ZF4jS.jpg", "original_language": "en", "original_title": "Back to the Future Part II", "genre_ids": [12, 35, 10751, 878], "title": "Back to the Future Part II", "vote_average": 7.7, "overview": "Marty and Doc are at it again in this wacky sequel to the 1985 blockbuster as the time-traveling duo head to 2015 to nip some McFly family woes in the bud. But things go awry thanks to bully Biff Tannen and a pesky sports almanac. In a last-ditch attempt to set things straight, Marty finds himself bound for 1955 and face to face with his teenage parents -- again.", "release_date": "1989-11-22" }, { "popularity": 24.762, "vote_count": 1314, "video": false, "poster_path": "\/8ZtH1V4rhrtP53ezlEWrCaMALXF.jpg", "id": 8913, "adult": false, "backdrop_path": "\/opC0gnJ8bvohMjNJeGHzNdIMttX.jpg", "original_language": "en", "original_title": "Pet Sematary", "genre_ids": [27], "title": "Pet Sematary", "vote_average": 6.6, "overview": "Dr. Louis Creed's family moves into the country house of their dreams and discover a pet cemetery at the back of their property. The cursed burial ground deep in the woods brings the dead back to life -- with \"minor\" problems. At first, only the family's cat makes the return trip, but an accident forces a heartbroken father to contemplate the unthinkable.", "release_date": "1989-04-21" }, { "popularity": 23.048, "vote_count": 640, "video": false, "poster_path": "\/m4mVpkghEgWrZsxpgCmpDMlNrL2.jpg", "id": 11361, "adult": false, "backdrop_path": "\/eGO3f5DPO52BbzBdHNYfRdi4Mb9.jpg", "original_language": "en", "original_title": "Halloween 5: The Revenge of Michael Myers", "genre_ids": [27, 53], "title": "Halloween 5: The Revenge of Michael Myers", "vote_average": 5.4, "overview": "Presumed dead after a shoot-out with the Haddonfield police, Michael Myers is secretly nursed back to health -- and returns a year later to kill again and once more targets his young niece, Jamie. Jamie is now recovering in the local children's hospital after attacking her stepmother and losing her voice. Her mental link with her evil uncle may be the key to uprooting her family tree.", "release_date": "1989-10-12" }, { "popularity": 26.401, "vote_count": 900, "video": false, "poster_path": "\/5qVjJGzPokkK7OYA65hYb1fGsJQ.jpg", "id": 10495, "adult": false, "backdrop_path": "\/9SPZml4PryC3Rz9EsLhrokcwoLR.jpg", "original_language": "en", "original_title": "The Karate Kid Part III", "genre_ids": [28, 10751, 18, 12], "title": "The Karate Kid Part III", "vote_average": 5.8, "overview": "Kreese, his life in tatters after his karate school was defeated by Daniel and Mr. Miyagi, visits Terry, a friend from Vietnam. Terry is a ruthless business man and a martial arts expert, and he vows to help Kreese take revenge on Daniel and Mr. Miyagi.", "release_date": "1989-06-29" }, { "popularity": 19.668, "id": 28609, "video": false, "vote_count": 332, "vote_average": 6.6, "title": "Dragon Ball Z: Dead Zone", "release_date": "1989-07-15", "original_language": "ja", "original_title": "ドラゴンボールＺ オラの悟飯をかえせッ!!", "genre_ids": [16, 28, 14], "backdrop_path": "\/4dmEpmTdXJffmD0FM90WNY3vd3C.jpg", "adult": false, "overview": "Gohan has been kidnapped! To make matters worse, the evil Garlic Jr. is gathering the Dragonballs to wish for immortality. Only then will Garlic Jr. be able to take over the Earth in order to gain revenge for the death of his father. Goku rushes to save Gohan, but arrives at the fortress just as Garlic Jr. summons the Eternal Dragon! Krillin and Piccolo try to help Goku, but their combined powers.", "poster_path": "\/ywtyEDTM2YO7qod7USNNwhrAfvA.jpg" }, { "popularity": 20.312, "vote_count": 1400, "video": false, "poster_path": "\/64NKasFKx6aOTKRg4mv76l0IwZR.jpg", "id": 5825, "adult": false, "backdrop_path": "\/8TNf3mbv4Wv9t6KMkxLUkCrB6SJ.jpg", "original_language": "en", "original_title": "National Lampoon's Christmas Vacation", "genre_ids": [35], "title": "National Lampoon's Christmas Vacation", "vote_average": 7.3, "overview": "It's Christmas time and the Griswolds are preparing for a family seasonal celebration, but things never run smoothly for Clark, his wife Ellen and their two kids. Clark's continual bad luck is worsened by his obnoxious family guests, but he manages to keep going knowing that his Christmas bonus is due soon.", "release_date": "1989-11-30" }, { "popularity": 20.074, "vote_count": 2757, "video": false, "poster_path": "\/yObYPMA58DnTMvJooFW7GG6jWAt.jpg", "id": 2978, "adult": false, "backdrop_path": "\/Ae4j8Y6EnjtPJxnIVmLMzcARZ7T.jpg", "original_language": "en", "original_title": "Ghostbusters II", "genre_ids": [35, 14], "title": "Ghostbusters II", "vote_average": 6.5, "overview": "Five years after they defeated Gozer, the Ghostbusters are out of business. When Dana begins to have ghost problems again, the boys come out of retirement to aid her and hopefully save New York City from a new paranormal threat.", "release_date": "1989-06-16" }, { "popularity": 19.569, "id": 709, "video": false, "vote_count": 1190, "vote_average": 6.2, "title": "Licence to Kill", "release_date": "1989-07-07", "original_language": "en", "original_title": "Licence to Kill", "genre_ids": [12, 28, 53], "backdrop_path": "\/p6VFbg5lhWj0RCgXf5dj6IDMPvt.jpg", "adult": false, "overview": "After capturing the notorious drug lord Franz Sanchez, Bond's close friend and former CIA agent Felix Leiter is left for dead and his wife is murdered. Bond goes rogue and seeks vengeance on those responsible, as he infiltrates Sanchez's organization from the inside.", "poster_path": "\/eaHTaaAPBhO995R67mrFMsPwCdr.jpg" }, { "popularity": 17.012, "id": 9354, "video": false, "vote_count": 2022, "vote_average": 6.2, "title": "Honey, I Shrunk the Kids", "release_date": "1989-06-23", "original_language": "en", "original_title": "Honey, I Shrunk the Kids", "genre_ids": [12, 35, 10751, 878], "backdrop_path": "\/orzPkQ7ZMso0i7S7bPMtdRk5OdF.jpg", "adult": false, "overview": "The scientist father of a teenage girl and boy accidentally shrinks his and two other neighborhood teens to the size of insects. Now the teens must fight diminutive dangers as the father searches for them.", "poster_path": "\/omQOzahi2NIeiYznNxHFDvNbvo6.jpg" }, { "popularity": 24.2, "id": 207, "video": false, "vote_count": 7550, "vote_average": 8.3, "title": "Dead Poets Society", "release_date": "1989-06-02", "original_language": "en", "original_title": "Dead Poets Society", "genre_ids": [18], "backdrop_path": "\/tJRToZBfb52NhF6SMGAe0bWQc6z.jpg", "adult": false, "overview": "At an elite, old-fashioned boarding school in New England, a passionate English teacher inspires his students to rebel against convention and seize the potential of every day, courting the disdain of the stern headmaster.", "poster_path": "\/ai40gM7SUaGA6fthvsd87o8IQq4.jpg" }, { "popularity": 17.792, "vote_count": 100, "video": false, "poster_path": "\/ztnaaBao1ctl0xu6uphmANBI7ef.jpg", "id": 83088, "adult": false, "backdrop_path": "\/2QbyWDvb6GylplTD77rNAZNepaU.jpg", "original_language": "ja", "original_title": "聖闘士星矢 最終聖戦の戦士たち", "genre_ids": [28, 16, 14], "title": "Saint Seiya: Warriors of the Final Holy Battle", "vote_average": 7.1, "overview": "The plot involves the coming of Lucifer to the Sanctuary, where his underlings systematically dispose of the surviving Gold Saints. Athena goes to Lucifer to ask for peace, placing herself in peril. The Bronze Saints must then come to her rescue, destroying Lucifer's Fallen Angels (Seima Tenshi in Japanese) in the process.", "release_date": "1989-03-18" }, { "popularity": 18.576, "id": 10160, "video": false, "vote_count": 724, "vote_average": 5.4, "title": "A Nightmare on Elm Street: The Dream Child", "release_date": "1989-08-11", "original_language": "en", "original_title": "A Nightmare on Elm Street: The Dream Child", "genre_ids": [27, 53], "backdrop_path": "\/vHgIvVAwo9rvmLzcCzecv76iz8L.jpg", "adult": false, "overview": "Alice, having survived the previous installment of the Nightmare series, finds the deadly dreams of Freddy Krueger starting once again. This time, the taunting murderer is striking through the sleeping mind of Alice's unborn child. His intention is to be \"born again\" into the real world. The only one who can stop Freddy is his dead mother, but can Alice free her spirit in time to save her own son?", "poster_path": "\/kizvpgXQfrAgN8FhOd87LbKk6kO.jpg" }, { "popularity": 26.893, "id": 942, "video": false, "vote_count": 2238, "vote_average": 6.9, "title": "Lethal Weapon 2", "release_date": "1989-07-07", "original_language": "en", "original_title": "Lethal Weapon 2", "genre_ids": [28, 12, 35, 80, 53], "backdrop_path": "\/sb7H2SSUKA8Wk441HIHTQXsoy2e.jpg", "adult": false, "overview": "In the opening chase, Martin Riggs and Roger Murtaugh stumble across a trunk full of Krugerrands. They follow the trail to a South African diplomat who's using his immunity to conceal a smuggling operation. When he plants a bomb under Murtaugh's toilet, the action explodes!", "poster_path": "\/4fAIXbbEe1YpcJYuOBEFTa0JiGP.jpg" }, { "popularity": 19.732, "id": 2756, "video": false, "vote_count": 1799, "vote_average": 7.3, "title": "The Abyss", "release_date": "1989-08-09", "original_language": "en", "original_title": "The Abyss", "genre_ids": [12, 28, 53, 878], "backdrop_path": "\/aPB3jFuMSoNFk2uDZ5tX5CIGaSX.jpg", "adult": false, "overview": "A civilian oil rig crew is recruited to conduct a search and rescue effort when a nuclear submarine mysteriously sinks. One diver soon finds himself on a spectacular odyssey 25,000 feet below the ocean's surface where he confronts a mysterious force that has the power to change the world or destroy it.", "poster_path": "\/jel2BuDv7Bq4fuv2pUrTfiBm69o.jpg" }] }